
T0C74 000:257 SEGGER J-Link V6.16a Log File (0001ms, 0035ms total)
T0C74 000:257 DLL Compiled: Jun  6 2017 12:42:51 (0001ms, 0035ms total)
T0C74 000:257 Logging started @ 2019-01-13 20:31 (0001ms, 0035ms total)
T0C74 000:258 JLINK_SetWarnOutHandler(...) (0000ms, 0035ms total)
T0C74 000:258 JLINK_OpenEx(...)
Firmware: J-Link ARM V8 compiled Nov 28 2014 13:44:46
Hardware: V8.00
S/N: 16864320
Feature(s): RDI,FlashDL,FlashBP,JFlash,GDBWEBSRV Webserver running on local port 19080 (0010ms, 0045ms total)
T0C74 000:258   returns O.K. (0010ms, 0045ms total)
T0C74 000:268 JLINK_SetErrorOutHandler(...) (0000ms, 0045ms total)
T0C74 000:268 JLINK_ExecCommand("ProjectFile = "C:\Users\Morteza\Dropbox\projects\phone pay\Morteza_Mostafa\phone pay\nRF5_SDK_11.0.0_89a8197\examples\ble_peripheral\ble_app_template3 - V1.3 - slave\pca10028\s130\arm5_no_packs\JLinkSettings.ini"", ...). C:\Program Files (x86)\SEGGER\JLink_V616a\JLinkDevices.xml evaluated successfully.  returns 0x00 (0099ms, 0144ms total)
T0C74 000:367 JLINK_ExecCommand("Device = nRF51822_xxAC", ...). Device "NRF51822_XXAC" selected.  returns 0x00 (0002ms, 0146ms total)
T0C74 000:369 JLINK_ExecCommand("DisableConnectionTimeout", ...).   returns 0x01 (0000ms, 0146ms total)
T0C74 000:369 JLINK_GetHardwareVersion()  returns 0x13880 (0000ms, 0146ms total)
T0C74 000:369 JLINK_GetDLLVersion()  returns 61601 (0000ms, 0146ms total)
T0C74 000:369 JLINK_GetFirmwareString(...) (0000ms, 0146ms total)
T0C74 000:369 JLINK_GetDLLVersion()  returns 61601 (0000ms, 0146ms total)
T0C74 000:369 JLINK_GetCompileDateTime() (0000ms, 0146ms total)
T0C74 000:369 JLINK_GetFirmwareString(...) (0000ms, 0146ms total)
T0C74 000:369 JLINK_GetHardwareVersion()  returns 0x13880 (0000ms, 0146ms total)
T0C74 000:369 JLINK_TIF_Select(JLINKARM_TIF_SWD)  returns 0x00 (0001ms, 0147ms total)
T0C74 000:370 JLINK_SetSpeed(20000) (0000ms, 0147ms total)
T0C74 000:370 JLINK_SetResetType(JLINKARM_RESET_TYPE_NORMAL)  returns JLINKARM_RESET_TYPE_NORMAL (0000ms, 0147ms total)
T0C74 000:370 JLINK_Reset() >0x10B TIF>Found SW-DP with ID 0x0BB11477 >0x0D TIF> >0x28 TIF> >0x0D TIF> >0x28 TIF> >0x0D TIF> >0x28 TIF> >0x0D TIF> >0x28 TIF> >0x35 TIF> >0x0D TIF> >0x28 TIF>Scanning APs, stopping at first AHB-AP found. >0x0D TIF> >0x28 TIF> >0x35 TIF> >0x35 TIF>AP[0] IDR: 0x04770021 (AHB-AP) >0x0D TIF> >0x28 TIF> >0x35 TIF> >0x35 TIF>AHB-AP ROM: 0xF0000000 (Base addr. of first ROM table) >0x0D TIF> >0x28 TIF> >0x0D TIF> >0x28 TIF> >0x0D TIF> >0x28 TIF> >0x35 TIF> >0x35 TIF> >0x0D TIF>
 >0x28 TIF> >0x35 TIF> >0x35 TIF>CPUID reg: 0x410CC200. Implementer code: 0x41 (ARM)Found Cortex-M0 r0p0, Little endian. -- CPU_ReadMem(4 bytes @ 0xE000EDF0) -- CPU_ReadMem(4 bytes @ 0xE0002000)FPUnit: 4 code (BP) slots and 0 literal slots -- CPU_ReadMem(4 bytes @ 0xE000EDFC) -- CPU_ReadMem(4 bytes @ 0xE0001000) -- CPU_WriteMem(4 bytes @ 0xE0001000)CoreSight components:ROMTbl[0] @ F0000000 -- CPU_ReadMem(16 bytes @ 0xF0000000) -- CPU_ReadMem(16 bytes @ 0xE00FFFF0) -- CPU_ReadMem(16 bytes @ 0xE00FFFE0)
ROMTbl[0][0]: E00FF000, CID: B105100D, PID: 000BB471 ROM TableROMTbl[1] @ E00FF000 -- CPU_ReadMem(16 bytes @ 0xE00FF000) -- CPU_ReadMem(16 bytes @ 0xE000EFF0) -- CPU_ReadMem(16 bytes @ 0xE000EFE0)ROMTbl[1][0]: E000E000, CID: B105E00D, PID: 000BB008 SCS -- CPU_ReadMem(16 bytes @ 0xE0001FF0) -- CPU_ReadMem(16 bytes @ 0xE0001FE0)ROMTbl[1][1]: E0001000, CID: B105E00D, PID: 000BB00A DWT -- CPU_ReadMem(16 bytes @ 0xE0002FF0) -- CPU_ReadMem(16 bytes @ 0xE0002FE0)
ROMTbl[1][2]: E0002000, CID: B105E00D, PID: 000BB00B FPB -- CPU_ReadMem(16 bytes @ 0xF0002FF0) -- CPU_ReadMem(16 bytes @ 0xF0002FE0)ROMTbl[0][1]: F0002000, CID: B105900D, PID: 000BB9A3 ??? -- CPU_ReadMem(4 bytes @ 0x10001004) -- CPU is running -- CPU_WriteMem(4 bytes @ 0xE000EDF0) -- CPU is running -- CPU_WriteMem(4 bytes @ 0xE000EDFC) >0x35 TIF>Setting AIRCR.SYSRESETREQ -- CPU is running -- CPU_WriteMem(4 bytes @ 0xE000ED0C) >0x0D TIF> >0x28 TIF> -- CPU_ReadMem(4 bytes @ 0xE000ED0C)
 -- CPU_ReadMem(4 bytes @ 0xE000EDF0) -- CPU_ReadMem(4 bytes @ 0xE000EDF0) -- CPU_ReadMem(4 bytes @ 0xE000EDF0) -- CPU is running -- CPU_WriteMem(4 bytes @ 0xE000EDF0) -- CPU is running -- CPU_WriteMem(4 bytes @ 0xE000EDFC) -- CPU_ReadMem(4 bytes @ 0xE000EDF0) -- CPU_WriteMem(4 bytes @ 0xE0002000) -- CPU_ReadMem(4 bytes @ 0xE000EDFC) -- CPU_ReadMem(4 bytes @ 0xE0001000) -- CPU_WriteMem(4 bytes @ 0xE0001000) (0080ms, 0227ms total)
T0C74 000:450 JLINK_GetId() >0x35 TIF>  returns 0x0BB11477 (0000ms, 0227ms total)
T0C74 000:458 JLINK_GetFirmwareString(...) (0000ms, 0227ms total)
T0C74 001:384 JLINK_Close() -- CPU_ReadMem(4 bytes @ 0xE0001000) -- CPU_WriteMem(4 bytes @ 0xE0001000) -- CPU_WriteMem(4 bytes @ 0xE0001004) (0007ms, 0234ms total)
T0C74 001:384  (0007ms, 0234ms total)
T0C74 001:384 Closed (0007ms, 0234ms total)
